﻿{
    "version": 3,
    "configurePresets": [
      {
        "name": "windows-base",
        "hidden": true,
        "generator": "Ninja",
        "binaryDir": "${sourceDir}/public/build/${presetName}",
        "installDir": "${sourceDir}/public/install/${presetName}",
        "cacheVariables": {
          "CMAKE_C_COMPILER": "cl.exe",
          "CMAKE_CXX_COMPILER": "cl.exe",
          "CMAKE_TOOLCHAIN_FILE": "${sourceDir}/thirdParty/vcpkg/scripts/buildsystems/vcpkg.cmake"
        },
        "condition": {
          "type": "equals",
          "lhs": "${hostSystemName}",
          "rhs": "Windows"
        }
      },
        {
            "name": "x64-debug",
            "displayName": "x64 Debug",
            "inherits": "windows-base",
            "architecture": {
                "value": "x64",
                "strategy": "external"
            },
            "cacheVariables": {
                "CMAKE_BUILD_TYPE": "Debug"
            }
        },
        {
            "name": "x64-release",
            "displayName": "x64 Release",
            "inherits": "x64-debug",
            "cacheVariables": {
                "CMAKE_BUILD_TYPE": "Release"
            }
        },
        {
            "name": "x86-debug",
            "displayName": "x86 Debug",
            "inherits": "windows-base",
            "architecture": {
                "value": "x86",
                "strategy": "external"
            },
            "cacheVariables": {
                "CMAKE_BUILD_TYPE": "Debug"
            }
        },
        {
            "name": "x86-release",
            "displayName": "x86 Release",
            "inherits": "x86-debug",
            "cacheVariables": {
                "CMAKE_BUILD_TYPE": "Release"
            }
        },
      {
        "name": "linux-debug-WSL",
        "displayName": "Linux Debug WSL",
        "generator": "Ninja",
        "binaryDir": "${sourceDir}/public/build/${presetName}",
        "installDir": "${sourceDir}/public/install/${presetName}",
        "cacheVariables": {
          "CMAKE_BUILD_TYPE": "Debug",
          "CMAKE_TOOLCHAIN_FILE": "${sourceDir}/thirdParty/vcpkg/scripts/buildsystems/vcpkg.cmake"
        },
        "condition": {
          "type": "equals",
          "lhs": "${hostSystemName}",
          "rhs": "Linux"
        },
        "vendor": {
          "microsoft.com/VisualStudioRemoteSettings/CMake/1.0": {
            "sourceDir": "$env{HOME}/.vs/$ms{projectDirName}"
          }
        }
      },
      {
        "name": "linux-debug-native",
        "displayName": "Linux Release Native",
        "binaryDir": "${sourceDir}/public/build/${presetName}",
        "installDir": "${sourceDir}/public/install/${presetName}",
        "cacheVariables": {
          "CMAKE_BUILD_TYPE": "Debug",
          "CMAKE_TOOLCHAIN_FILE": "${sourceDir}/thirdParty/vcpkg/scripts/buildsystems/vcpkg.cmake"
        },
        "condition": {
          "type": "equals",
          "lhs": "${hostSystemName}",
          "rhs": "Linux"
        }
      },
      {
        "name": "linux-release-native",
        "displayName": "Linux Release Native",
        "binaryDir": "${sourceDir}/public/build/${presetName}",
        "installDir": "${sourceDir}/public/install/${presetName}",
        "cacheVariables": {
          "CMAKE_BUILD_TYPE": "Release",
          "CMAKE_TOOLCHAIN_FILE": "${sourceDir}/thirdParty/vcpkg/scripts/buildsystems/vcpkg.cmake"
        },
        "condition": {
          "type": "equals",
          "lhs": "${hostSystemName}",
          "rhs": "Linux"
        }
      },
      {
        "name": "macos-debug",
        "displayName": "macOS Debug",
        "generator": "Ninja",
        "binaryDir": "${sourceDir}/public/build/${presetName}",
        "installDir": "${sourceDir}/public/install/${presetName}",
        "cacheVariables": {
          "CMAKE_BUILD_TYPE": "Debug"
        },
        "condition": {
          "type": "equals",
          "lhs": "${hostSystemName}",
          "rhs": "Darwin"
        },
        "vendor": {
          "microsoft.com/VisualStudioRemoteSettings/CMake/1.0": {
            "sourceDir": "$env{HOME}/.vs/$ms{projectDirName}"
          }
        }
      }
    ]
}
